[ {
  "uid" : "464d33fd2dfaf64f",
  "name" : "should have the right title",
  "time" : {
    "start" : 1585835514796,
    "stop" : 1585835515860,
    "duration" : 1064
  },
  "status" : "passed",
  "severity" : "normal"
}, {
  "uid" : "aa622d5e8386e31",
  "name" : "searches for WebdriverIO",
  "time" : {
    "start" : 1585824677249,
    "stop" : 1585824680353,
    "duration" : 3104
  },
  "status" : "passed",
  "severity" : "normal"
} ]