{
  "total" : 2,
  "items" : [ {
    "uid" : "78acfb710f47840c20675b8f5323087c",
    "name" : "DuckDuckGo search",
    "statistic" : {
      "failed" : 0,
      "broken" : 0,
      "skipped" : 0,
      "passed" : 1,
      "unknown" : 0,
      "total" : 1
    }
  }, {
    "uid" : "601e7f3c0a9c957fa7f229ca6a567c98",
    "name" : "webdriver.io page",
    "statistic" : {
      "failed" : 0,
      "broken" : 0,
      "skipped" : 0,
      "passed" : 1,
      "unknown" : 0,
      "total" : 1
    }
  } ]
}