{
  "uid" : "b1a8273437954620fa374b796ffaacdd",
  "children" : [ {
    "name" : "searches for WebdriverIO",
    "uid" : "aa622d5e8386e31",
    "parentUid" : "b1a8273437954620fa374b796ffaacdd",
    "status" : "passed",
    "time" : {
      "start" : 1585824677249,
      "stop" : 1585824680353,
      "duration" : 3104
    },
    "flaky" : false,
    "newFailed" : false,
    "parameters" : [ "chrome" ]
  }, {
    "name" : "should have the right title",
    "uid" : "464d33fd2dfaf64f",
    "parentUid" : "b1a8273437954620fa374b796ffaacdd",
    "status" : "passed",
    "time" : {
      "start" : 1585835514796,
      "stop" : 1585835515860,
      "duration" : 1064
    },
    "flaky" : false,
    "newFailed" : false,
    "parameters" : [ "chrome" ]
  } ],
  "name" : "behaviors"
}