{
  "uid" : "98d3104e051c652961429bf95fa0b5d6",
  "children" : [ {
    "name" : "DuckDuckGo search",
    "children" : [ {
      "name" : "searches for WebdriverIO",
      "uid" : "aa622d5e8386e31",
      "parentUid" : "78acfb710f47840c20675b8f5323087c",
      "status" : "passed",
      "time" : {
        "start" : 1585824677249,
        "stop" : 1585824680353,
        "duration" : 3104
      },
      "flaky" : false,
      "newFailed" : false,
      "parameters" : [ "chrome" ]
    } ],
    "uid" : "78acfb710f47840c20675b8f5323087c"
  }, {
    "name" : "webdriver.io page",
    "children" : [ {
      "name" : "should have the right title",
      "uid" : "464d33fd2dfaf64f",
      "parentUid" : "601e7f3c0a9c957fa7f229ca6a567c98",
      "status" : "passed",
      "time" : {
        "start" : 1585835514796,
        "stop" : 1585835515860,
        "duration" : 1064
      },
      "flaky" : false,
      "newFailed" : false,
      "parameters" : [ "chrome" ]
    } ],
    "uid" : "601e7f3c0a9c957fa7f229ca6a567c98"
  } ],
  "name" : "suites"
}