launch_status failed=0 1585835518000000000
launch_status broken=0 1585835518000000000
launch_status passed=2 1585835518000000000
launch_status skipped=0 1585835518000000000
launch_status unknown=0 1585835518000000000
launch_time duration=10838611 1585835518000000000
launch_time min_duration=1064 1585835518000000000
launch_time max_duration=3104 1585835518000000000
launch_time sum_duration=4168 1585835518000000000
launch_retries retries=2 1585835518000000000
launch_retries run=2 1585835518000000000
