{
  "f272ea613d00cb82c03e7f941d2a1dc2" : {
    "statistic" : {
      "failed" : 0,
      "broken" : 0,
      "skipped" : 0,
      "passed" : 1,
      "unknown" : 0,
      "total" : 1
    },
    "items" : [ {
      "uid" : "464d33fd2dfaf64f",
      "status" : "passed",
      "time" : {
        "start" : 1585835514796,
        "stop" : 1585835515860,
        "duration" : 1064
      }
    } ]
  },
  "4d1969a7f473eb3b72e82c5a70599eb7" : {
    "statistic" : {
      "failed" : 0,
      "broken" : 0,
      "skipped" : 0,
      "passed" : 1,
      "unknown" : 0,
      "total" : 1
    },
    "items" : [ {
      "uid" : "aa622d5e8386e31",
      "status" : "passed",
      "time" : {
        "start" : 1585824677249,
        "stop" : 1585824680353,
        "duration" : 3104
      }
    } ]
  }
}